…
Now, let’s extract the model output using `broom::augment()`. The output
includes the selected data, the fitted data, and the standard error of
fitted values.

``` r
expanded_hp_vs_mpg <- compact_hp_vs_mpg %>% 
  mutate(am, yhat = map(model, ~augment(.x,se_fit = TRUE)), .keep = "none") %>% # extract the model output and the standard error of the fitted values
  
  unnest(yhat) # expand the output for every row
print(expanded_hp_vs_mpg)
```

    ## # A tibble: 32 × 10
    ##       am    hp   mpg .fitted .se.fit .resid   .hat .sigma .cooksd .std.resid
    ##    <dbl> <dbl> <dbl>   <dbl>   <dbl>  <dbl>  <dbl>  <dbl>   <dbl>      <dbl>
    ##  1     1   110  21     164.     16.8 -53.9  0.102    52.2 0.0664      -1.08 
    ##  2     1   110  21     164.     16.8 -53.9  0.102    52.2 0.0664      -1.08 
    ##  3     1    93  22.8   144.     15.1 -51.2  0.0825   52.5 0.0465      -1.02 
    ##  4     1    66  32.4    39.4    24.5  26.6  0.217    54.3 0.0453       0.571
    ##  5     1    52  30.4    61.3    20.8  -9.27 0.156    55.1 0.00340     -0.192
    ##  6     1    65  33.9    23.1    27.6  41.9  0.275    52.9 0.166        0.936
    ##  7     1    66  27.3    95.1    16.3 -29.1  0.0955   54.3 0.0179      -0.582
    ##  8     1    91  26     109.     15.1 -18.3  0.0826   54.8 0.00594     -0.363
    ##  9     1   113  30.4    61.3    20.8  51.7  0.156    52.2 0.106        1.07 
    ## 10     1   264  15.8   221.     25.7  43.4  0.239    52.9 0.140        0.945
    ## # ℹ 22 more rows
…
``` r
hp_vs_mpg <- expanded_hp_vs_mpg %>%
  select(am,hp,mpg,.fitted,.se.fit) %>%
  mutate(lower_95p_ci = .fitted - 1.96 *.se.fit) %>% # calculate the 95% lower confidence interval (z-score = 1.96)
  mutate(upper_95p_ci = .fitted + 1.96 *.se.fit) %>% # calculate the 95% upper confidence interval (z-score = 1.96)
  rename(transmission=am) %>% # Rename am to transmission
  mutate(transmission = case_when(
    transmission == 0 ~ "A",
    transmission == 1 ~ "M")) %>% # change 0 and 1 to automatic (A) and manual (M)
  select(-.se.fit) # remove column no longer needed for plotting

print(hp_vs_mpg)  
```

    ## # A tibble: 32 × 6
    ##    transmission    hp   mpg .fitted lower_95p_ci upper_95p_ci
    ##    <chr>        <dbl> <dbl>   <dbl>        <dbl>        <dbl>
    ##  1 M              110  21     164.        131.          197. 
    ##  2 M              110  21     164.        131.          197. 
    ##  3 M               93  22.8   144.        115.          174. 
    ##  4 M               66  32.4    39.4        -8.63         87.5
    ##  5 M               52  30.4    61.3        20.5         102. 
    ##  6 M               65  33.9    23.1       -31.0          77.1
    ##  7 M               66  27.3    95.1        63.3         127. 
    ##  8 M               91  26     109.         79.7         139. 
    ##  9 M              113  30.4    61.3        20.5         102. 
    ## 10 M              264  15.8   221.        170.          271. 
    ## # ℹ 22 more rows
…
